{
	"info": {
		"_postman_id": "44fd3637-886b-4654-905e-5af671af2fb4",
		"name": "New Collection",
		"schema": "https://schema.getpostman.com/json/collection/v2.0.0/collection.json",
		"_exporter_id": "25811125"
	},
	"item": [
		{
			"name": "get 1",
			"request": {
				"auth": {
					"type": "basic",
					"basic": {
						"password": "admin",
						"username": "admin"
					}
				},
				"method": "GET",
				"header": [],
				"url": "127.0.0.1:8080/user/00000000-0000-0000-0000-000000000001"
			},
			"response": []
		},
		{
			"name": "get all",
			"request": {
				"auth": {
					"type": "basic",
					"basic": {
						"username": "admin",
						"password": "admin"
					}
				},
				"method": "GET",
				"header": [],
				"url": "127.0.0.1:8080/user"
			},
			"response": []
		},
		{
			"name": "create as admin",
			"request": {
				"auth": {
					"type": "basic",
					"basic": {
						"password": "admin",
						"username": "admin"
					}
				},
				"method": "POST",
				"header": [],
				"body": {
					"mode": "raw",
					"raw": "{\n    \"email\": \"user2@user2.com\",\n    \"username\": \"user2\",\n    \"password\": \"pass2\",\n    \"admin\": false\n}",
					"options": {
						"raw": {
							"language": "json"
						}
					}
				},
				"url": "127.0.0.1:8080/user"
			},
			"response": []
		},
		{
			"name": "create as admin with id",
			"request": {
				"auth": {
					"type": "basic",
					"basic": {
						"password": "admin",
						"username": "admin"
					}
				},
				"method": "POST",
				"header": [],
				"body": {
					"mode": "raw",
					"raw": "{\n    \"id\": \"00000000-0000-0000-0000-000000000002\",\n    \"email\": \"user@user.com\",\n    \"username\": \"user\",\n    \"password\": \"pass\",\n    \"admin\": false\n}",
					"options": {
						"raw": {
							"language": "json"
						}
					}
				},
				"url": "127.0.0.1:8080/user"
			},
			"response": []
		},
		{
			"name": "create as pleb",
			"request": {
				"auth": {
					"type": "basic",
					"basic": {
						"password": "pass",
						"username": "user"
					}
				},
				"method": "POST",
				"header": [],
				"body": {
					"mode": "raw",
					"raw": "{\n    \"email\": \"user2@user2.com\",\n    \"username\": \"user2\",\n    \"password\": \"pass2\",\n    \"admin\": true\n}",
					"options": {
						"raw": {
							"language": "json"
						}
					}
				},
				"url": "127.0.0.1:8080/user"
			},
			"response": []
		},
		{
			"name": "update as admin",
			"request": {
				"auth": {
					"type": "basic",
					"basic": {
						"password": "admin",
						"username": "admin"
					}
				},
				"method": "PUT",
				"header": [],
				"body": {
					"mode": "raw",
					"raw": "{\n    \"email\": \"user-updated@user.com\",\n    \"username\": \"user\",\n    \"password\": \"pass\",\n    \"admin\": false\n}",
					"options": {
						"raw": {
							"language": "json"
						}
					}
				},
				"url": "127.0.0.1:8080/user/00000000-0000-0000-0000-000000000002"
			},
			"response": []
		},
		{
			"name": "update as admin no user",
			"request": {
				"auth": {
					"type": "basic",
					"basic": {
						"password": "admin",
						"username": "admin"
					}
				},
				"method": "PUT",
				"header": [],
				"body": {
					"mode": "raw",
					"raw": "{\n    \"email\": \"user@user.com\",\n    \"username\": \"user\",\n    \"password\": \"pass\",\n    \"admin\": false\n}",
					"options": {
						"raw": {
							"language": "json"
						}
					}
				},
				"url": "127.0.0.1:8080/user/00000000-0000-0000-0000-000000000003"
			},
			"response": []
		},
		{
			"name": "update as admin invalid username",
			"request": {
				"auth": {
					"type": "basic",
					"basic": {
						"password": "admin",
						"username": "admin"
					}
				},
				"method": "PUT",
				"header": [],
				"body": {
					"mode": "raw",
					"raw": "{\n    \"id\": \"00000000-0000-0000-0000-000000000002\",\n    \"email\": \"user@user.com\",\n    \"username\": \"admin\",\n    \"password\": \"pass\",\n    \"admin\": false\n}",
					"options": {
						"raw": {
							"language": "json"
						}
					}
				},
				"url": "127.0.0.1:8080/user/00000000-0000-0000-0000-000000000002"
			},
			"response": []
		},
		{
			"name": "update as pleb",
			"request": {
				"auth": {
					"type": "basic",
					"basic": {
						"password": "pass",
						"username": "user"
					}
				},
				"method": "PUT",
				"header": [],
				"body": {
					"mode": "raw",
					"raw": "{\n    \"id\": \"00000000-0000-0000-0000-000000000002\",\n    \"email\": \"user-upadte-2@user.com\",\n    \"username\": \"user\",\n    \"password\": \"pass\",\n    \"admin\": false\n}",
					"options": {
						"raw": {
							"language": "json"
						}
					}
				},
				"url": "127.0.0.1:8080/user/00000000-0000-0000-0000-000000000002"
			},
			"response": []
		},
		{
			"name": "delete as pleb",
			"request": {
				"auth": {
					"type": "basic",
					"basic": {
						"password": "pass",
						"username": "user"
					}
				},
				"method": "DELETE",
				"header": [],
				"url": "127.0.0.1:8080/user/00000000-0000-0000-0000-000000000002"
			},
			"response": []
		},
		{
			"name": "delete as admin",
			"request": {
				"auth": {
					"type": "basic",
					"basic": {
						"password": "admin",
						"username": "admin"
					}
				},
				"method": "DELETE",
				"header": [],
				"url": "127.0.0.1:8080/user/00000000-0000-0000-0000-000000000002"
			},
			"response": []
		},
		{
			"name": "delete as admin second time",
			"request": {
				"auth": {
					"type": "basic",
					"basic": {
						"password": "admin",
						"username": "admin"
					}
				},
				"method": "DELETE",
				"header": [],
				"url": "127.0.0.1:8080/user/00000000-0000-0000-0000-000000000002"
			},
			"response": []
		}
	]
}